^D:\BITBUCKET\LINKEDLIST\LINKEDLISTFROMSCRATCH\CONSOLEAPPLICATION1\DELETENODEFROMLIST.C
D:\BITBUCKET\LINKEDLIST\LINKEDLISTFROMSCRATCH\CONSOLEAPPLICATION1\DEBUG\VC142.PDB
D:\BITBUCKET\LINKEDLIST\LINKEDLISTFROMSCRATCH\CONSOLEAPPLICATION1\DEBUG\VC142.IDB
D:\BITBUCKET\LINKEDLIST\LINKEDLISTFROMSCRATCH\CONSOLEAPPLICATION1\DEBUG\DELETENODEFROMLIST.OBJ
